<?xml version="1.0" encoding="utf-8"?>
<!-- Generator: Adobe Illustrator 20.1.0, SVG Export Plug-In . SVG Version: 6.00 Build 0)  -->
<svg version="1.1" id="Слой_1" xmlns="http://www.w3.org/2000/svg" xmlns:xlink="http://www.w3.org/1999/xlink" x="0px" y="0px"
	 width="555px" height="456px" viewBox="0 0 555 456" style="enable-background:new 0 0 555 456;" xml:space="preserve">
<style type="text/css">
	.st0{fill:url(#SVGID_1_);}
	.st1{filter:url(#Adobe_OpacityMaskFilter);}
	.st2{fill:url(#SVGID_3_);}
	.st3{opacity:0.33;mask:url(#SVGID_2_);fill:url(#SVGID_4_);}
	.st4{fill:url(#SVGID_5_);}
	.st5{fill:url(#SVGID_6_);}
	.st6{fill:url(#SVGID_7_);}
	.st7{fill:url(#SVGID_8_);}
	.st8{fill:url(#SVGID_9_);}
	.st9{fill:url(#SVGID_10_);}
	.st10{fill:#242122;}
	.st11{fill:url(#SVGID_11_);}
</style>
<linearGradient id="SVGID_1_" gradientUnits="userSpaceOnUse" x1="244.0574" y1="165.9931" x2="554.5344" y2="165.9931">
	<stop  offset="0" style="stop-color:#FFFFFF;stop-opacity:0"/>
	<stop  offset="1" style="stop-color:#FFFFFF"/>
</linearGradient>
<path class="st0" d="M441.8,0.5H538c0,0,18.4,0.1,16.4,18.9l-0.6,312.1H244.1"/>
<defs>
	<filter id="Adobe_OpacityMaskFilter" filterUnits="userSpaceOnUse" x="140.1" y="430.6" width="278.5" height="24.9">
		<feColorMatrix  type="matrix" values="1 0 0 0 0  0 1 0 0 0  0 0 1 0 0  0 0 0 1 0"/>
	</filter>
</defs>
<mask maskUnits="userSpaceOnUse" x="140.1" y="430.6" width="278.5" height="24.9" id="SVGID_2_">
	<g class="st1">
		
			<radialGradient id="SVGID_3_" cx="279.3284" cy="1787.4889" r="139.2515" gradientTransform="matrix(1 0 0 8.930000e-02 0 283.4507)" gradientUnits="userSpaceOnUse">
			<stop  offset="0" style="stop-color:#FFFFFF"/>
			<stop  offset="1" style="stop-color:#191A17"/>
		</radialGradient>
		<ellipse class="st2" cx="279.3" cy="443.1" rx="139.3" ry="12.4"/>
	</g>
</mask>
<linearGradient id="SVGID_4_" gradientUnits="userSpaceOnUse" x1="279.3639" y1="455.478" x2="279.2934" y2="430.846">
	<stop  offset="0" style="stop-color:#4C4949"/>
	<stop  offset="0.3539" style="stop-color:#191A17"/>
	<stop  offset="1" style="stop-color:#191A17"/>
</linearGradient>
<ellipse class="st3" cx="279.3" cy="443.1" rx="139.3" ry="12.4"/>
<g>
	<linearGradient id="SVGID_5_" gradientUnits="userSpaceOnUse" x1="193.4008" y1="440.4934" x2="368.6253" y2="440.4934">
		<stop  offset="6.060610e-03" style="stop-color:#59595B"/>
		<stop  offset="0.3161" style="stop-color:#767679"/>
		<stop  offset="0.5091" style="stop-color:#87878B"/>
		<stop  offset="1" style="stop-color:#59595B"/>
	</linearGradient>
	<path class="st4" d="M194.5,437.5v1.1c0,0.1,0,0.1,0,0.2v0.1c0,3.2,4.5,4.7,18.1,4.7c26.4,0,54.9,0,65.4,0c2.6,0,4.1,0,4.1,0
		c10.4,0,39,0,65.4,0c13.6,0,18.4-2,18.4-5h-0.4v-1H194.5z"/>
	<linearGradient id="SVGID_6_" gradientUnits="userSpaceOnUse" x1="279.0705" y1="374.9934" x2="279.0705" y2="451.5409">
		<stop  offset="8.484850e-02" style="stop-color:#6D6E72"/>
		<stop  offset="0.1292" style="stop-color:#8E8E91"/>
		<stop  offset="0.1849" style="stop-color:#C4C3C5"/>
		<stop  offset="0.2121" style="stop-color:#DFDFE1"/>
		<stop  offset="0.3152" style="stop-color:#A6A7AA"/>
		<stop  offset="0.3913" style="stop-color:#858587"/>
		<stop  offset="0.4606" style="stop-color:#636363"/>
		<stop  offset="0.5278" style="stop-color:#6E6F6F"/>
		<stop  offset="0.6493" style="stop-color:#8B8D8F"/>
		<stop  offset="0.7394" style="stop-color:#A5A8AB"/>
	</linearGradient>
	<path class="st5" d="M348.3,419c-12.2-12.4-12.6-39.5-12.6-39.5h-54.6H277h-54.6c0,0-0.5,27.1-12.6,39.5
		c-12.2,12.4-31.2,23.5,1.8,23.5c26.4,0,54.9,0,65.4,0c2.6,0,4.1,0,4.1,0c10.4,0,39,0,65.4,0C379.5,442.5,360.5,431.4,348.3,419z"/>
	<radialGradient id="SVGID_7_" cx="362.7669" cy="471.7841" r="64.1876" gradientUnits="userSpaceOnUse">
		<stop  offset="0" style="stop-color:#FFFFFF"/>
		<stop  offset="1" style="stop-color:#FFFFFF;stop-opacity:0"/>
	</radialGradient>
	<path class="st6" d="M289.9,442.5c6.7-15,28.3-27,55.1-29.7c1.2,2.1,2.6,4,4.2,5.6c11.9,12.2,30.5,23-0.1,24H289.9z"/>
	
		<radialGradient id="SVGID_8_" cx="412.6482" cy="471.7841" r="64.1876" gradientTransform="matrix(-1 0 0 1 609.857 0)" gradientUnits="userSpaceOnUse">
		<stop  offset="0" style="stop-color:#FFFFFF"/>
		<stop  offset="1" style="stop-color:#FFFFFF;stop-opacity:0"/>
	</radialGradient>
	<path class="st7" d="M270.1,442.5c-6.7-15-28.3-27-55.1-29.7c-1.2,2.1-2.6,4-4.2,5.6c-11.9,12.2-30.5,23,0.1,24H270.1z"/>
	<linearGradient id="SVGID_9_" gradientUnits="userSpaceOnUse" x1="210.8826" y1="442.6184" x2="347.4031" y2="442.6184">
		<stop  offset="6.060610e-03" style="stop-color:#FFFFFF;stop-opacity:0"/>
		<stop  offset="0.5091" style="stop-color:#FFFFFF"/>
		<stop  offset="1" style="stop-color:#FFFFFF;stop-opacity:0"/>
	</linearGradient>
	<path class="st8" d="M210.9,442.6c11.4-0.2,22.8-0.3,34.1-0.4l34.1-0.1l34.1,0.1l17.1,0.1l17.1,0.2l-17.1,0.2l-17.1,0.1l-34.1,0.1
		L245,443C233.6,442.9,222.3,442.8,210.9,442.6z"/>
	<linearGradient id="SVGID_10_" gradientUnits="userSpaceOnUse" x1="-9.2096" y1="374.761" x2="593.0366" y2="335.2845">
		<stop  offset="0" style="stop-color:#77787B"/>
		<stop  offset="0.302" style="stop-color:#727477"/>
		<stop  offset="0.4909" style="stop-color:#6D6E72"/>
		<stop  offset="1" style="stop-color:#6D6E72"/>
	</linearGradient>
	<path class="st9" d="M0.5,363.7c0,9.1,7.9,16.8,17,16.8h255.9h8.7H538c9.1,0,16.5-7.6,16.5-16.8v-31.2H0.5V363.7z"/>
	<path class="st10" d="M538,0.5H282.1h-8.7H17.4c-9.1,0-17,6.5-17,15.6v315.4h554V16.1C554.5,7,547.1,0.5,538,0.5z M531.5,308.5
		h-508v-286h508V308.5z"/>
	<linearGradient id="SVGID_11_" gradientUnits="userSpaceOnUse" x1="-9.1544" y1="373.7556" x2="593.0327" y2="334.2831">
		<stop  offset="0" style="stop-color:#88888D"/>
		<stop  offset="9.092152e-02" style="stop-color:#929296"/>
		<stop  offset="0.3433" style="stop-color:#ADADB1"/>
		<stop  offset="0.5851" style="stop-color:#C5C5C9"/>
		<stop  offset="0.8096" style="stop-color:#D4D6D9"/>
		<stop  offset="1" style="stop-color:#DADCDF"/>
	</linearGradient>
	<path class="st11" d="M0.5,361.9c0,9.1,7.9,17.6,17,17.6h255.9h8.7H538c9.1,0,16.5-8.5,16.5-17.6v-30.4H0.5V361.9z"/>
</g>
</svg>
